Tutorial del uso de las herramientas ‘tidyverse’
…
wifi_med <- read_csv("Puntos_de_navegacion_WiFi_gratis_en_Medell_n_-_para_ubicaci_n_en_el_mapa.csv")

## Parsed with column specification:
## cols(
##   COMUNA = col_double(),
##   `Nombre Comuna` = col_character(),
##   Barrio = col_character(),
##   `Nombre del sitio` = col_character(),
##   Dirección = col_character(),
##   Punto = col_character()
## )

wifi_med

## # A tibble: 105 x 6
##    COMUNA `Nombre Comuna` Barrio   `Nombre del sitio`    Dirección   Punto 
##     <dbl> <chr>           <chr>    <chr>                 <chr>       <chr> 
##  1      1 POPULAR         VILLA G… Parque de Guadalupe   Carrera 42… (6.28…
##  2      1 POPULAR         SANTO D… Plazoleta ubicada en… Carrera 28… (6.29…
##  3      1 BUENOS AIRES    LORETO   Unidad Deportiva Gra… "Carrera 3… (6.29…
##  4     10 LA CANDELARIA   LA CAND… Plazoleta de Abordaj… Clle 46 - … (6.24…
##  5     10 LA CANDELARIA   LA CAND… Plazoleta la Alpujar… Calle 44 #… (6.24…
##  6     10 LA CANDELARIA   BOSTON   Parque del Periodista Carrera 43… (6.24…
##  7     10 LA CANDELARIA   LA CAND… Parque de los Pies D… Carrera 58… (6.24…
##  8     10 LA CANDELARIA   LA CAND… Parque Berrio         Calle 50 #… (6.25…
##  9     10 LA CANDELARIA   VILLA N… Parque Bolivar        Carrera 49… (6.25…
## 10     10 LA CANDELARIA   LA CAND… Plazuela San Ignacio  Carrera 44… (6.24…
## # … with 95 more rows
…
